<svg width="20" height="20" viewBox="0 0 20 20" fill="none" xmlns="http://www.w3.org/2000/svg">
    <path d="M7.93252 10.1146C7.78017 9.96182 7.53252 9.96182 7.38018 10.1146C7.22744 10.2669 7.22744 10.5146 7.38018 10.6669C7.53252 10.8196 7.78017 10.8196 7.93252 10.6669C8.08525 10.5146 8.08525 10.2669 7.93252 10.1146Z" fill="#E5E5E5"/>
    <path d="M10 10.7812C9.35383 10.7812 8.82812 11.307 8.82812 11.9531C8.82812 12.5993 9.35383 13.125 10 13.125C10.6462 13.125 11.1719 12.5993 11.1719 11.9531C11.1719 11.307 10.6462 10.7812 10 10.7812ZM10 12.3438C9.78461 12.3438 9.60937 12.1685 9.60937 11.9531C9.60937 11.7377 9.78461 11.5625 10 11.5625C10.2154 11.5625 10.3906 11.7377 10.3906 11.9531C10.3906 12.1685 10.2154 12.3438 10 12.3438Z" fill="#E5E5E5"/>
    <path d="M10 8.82812C9.56336 8.82812 9.14113 8.91637 8.74516 9.09043C8.54766 9.17727 8.45793 9.40773 8.54473 9.60523C8.63152 9.80273 8.86203 9.89242 9.05953 9.80566C9.35582 9.67543 9.67227 9.60937 10 9.60937C11.2923 9.60937 12.3438 10.6608 12.3438 11.9531C12.3438 13.2455 11.2923 14.2969 10 14.2969C8.70766 14.2969 7.65625 13.2455 7.65625 11.9531C7.65625 11.9398 7.65621 11.9267 7.65652 11.9134C7.66152 11.6977 7.49074 11.5188 7.27508 11.5138C7.05906 11.5084 6.88051 11.6795 6.87551 11.8952C6.87504 11.9147 6.875 11.9337 6.875 11.9531C6.875 13.6762 8.27688 15.0781 10 15.0781C11.7231 15.0781 13.125 13.6762 13.125 11.9531C13.125 10.23 11.7231 8.82812 10 8.82812Z" fill="#E5E5E5"/>
    <path d="M10 2.96875C9.78426 2.96875 9.60938 3.14363 9.60938 3.35938V5.70312C9.60938 5.91887 9.78426 6.09375 10 6.09375C10.2157 6.09375 10.3906 5.91887 10.3906 5.70312V3.35938C10.3906 3.14363 10.2157 2.96875 10 2.96875Z" fill="#E5E5E5"/>
    <path d="M5.63591 5.8647L3.97888 4.20767C3.82634 4.05513 3.57899 4.05513 3.42642 4.20767C3.27388 4.3602 3.27388 4.60755 3.42642 4.76013L5.08345 6.41716C5.23599 6.5697 5.48337 6.56974 5.63591 6.41716C5.78845 6.26462 5.78845 6.01727 5.63591 5.8647Z" fill="#E5E5E5"/>
    <path d="M16.5734 4.20767C16.4209 4.05513 16.1735 4.05513 16.0209 4.20767L14.3639 5.8647C14.2114 6.01724 14.2114 6.26458 14.3639 6.41716C14.5164 6.5697 14.7638 6.56974 14.9164 6.41716L16.5734 4.76013C16.7259 4.60759 16.7259 4.36024 16.5734 4.20767Z" fill="#E5E5E5"/>
    <path d="M19.9021 12.0199C17.4207 9.21059 13.7362 6.875 10 6.875C6.26332 6.875 2.57882 9.21117 0.0978481 12.0199C-0.0449644 12.1816 -0.0296519 12.4285 0.132028 12.5713C0.293747 12.7141 0.540622 12.6988 0.683395 12.5371C0.766637 12.4429 0.851911 12.3489 0.938278 12.2556C2.86855 15.1722 6.36769 17.0313 10 17.0313C13.6323 17.0313 17.1314 15.1722 19.0617 12.2556C19.1481 12.349 19.2334 12.4429 19.3166 12.5371C19.4589 12.6983 19.7058 12.7145 19.868 12.5713C20.0296 12.4285 20.045 12.1816 19.9021 12.0199ZM10 16.25C6.56582 16.25 3.26285 14.4657 1.49652 11.6805C2.88824 10.3168 6.10394 7.65625 10 7.65625C13.8961 7.65625 17.1118 10.3168 18.5035 11.6804C16.7371 14.4657 13.4342 16.25 10 16.25Z" fill="#E5E5E5"/>
</svg>
