<svg preserveAspectRatio="none" width="4" height="1" viewBox="0 0 4 1" fill="none" xmlns="http://www.w3.org/2000/svg">
<rect width="1" height="1" fill="black"/>
<rect x="2" y="2.28882e-05" width="1" height="1" fill="black"/>
</svg>
